<svg width="34" height="34" viewBox="0 0 34 34" fill="none" xmlns="http://www.w3.org/2000/svg">
<path d="M20.9231 30.0769C19.8885 30.0769 18.8772 29.7701 18.017 29.1954C17.1568 28.6206 16.4864 27.8037 16.0905 26.8479C15.6946 25.8921 15.591 24.8404 15.7928 23.8257C15.9946 22.811 16.4928 21.879 17.2244 21.1474C17.9559 20.4159 18.8879 19.9177 19.9026 19.7159C20.9173 19.5141 21.969 19.6176 22.9248 20.0136C23.8806 20.4095 24.6975 21.0799 25.2723 21.9401C25.8471 22.8003 26.1538 23.8116 26.1538 24.8462C26.1521 26.2329 25.6005 27.5624 24.6199 28.543C23.6393 29.5235 22.3098 30.0752 20.9231 30.0769ZM20.9231 22.2308C20.4058 22.2308 19.9001 22.3842 19.47 22.6715C19.0399 22.9589 18.7047 23.3674 18.5068 23.8453C18.3088 24.3232 18.257 24.8491 18.3579 25.3564C18.4589 25.8637 18.708 26.3297 19.0737 26.6955C19.4395 27.0613 19.9055 27.3104 20.4128 27.4113C20.9202 27.5122 21.446 27.4604 21.9239 27.2625C22.4018 27.0645 22.8103 26.7293 23.0977 26.2992C23.3851 25.8691 23.5385 25.3634 23.5385 24.8462C23.5378 24.1527 23.262 23.4879 22.7717 22.9976C22.2813 22.5072 21.6165 22.2315 20.9231 22.2308Z" fill="#C0C0C0"/>
<path d="M31.3846 34H10.4615C9.76789 34 9.10266 33.7244 8.61218 33.234C8.1217 32.7435 7.84615 32.0783 7.84615 31.3846V19.6154C7.84615 18.9217 8.1217 18.2565 8.61218 17.766C9.10266 17.2755 9.76789 17 10.4615 17H14.7508L15.4608 14.8658C15.6344 14.3448 15.9675 13.8917 16.413 13.5706C16.8585 13.2495 17.3937 13.0768 17.9428 13.0769H23.9033C24.4524 13.0768 24.9877 13.2495 25.4332 13.5706C25.8787 13.8917 26.2118 14.3448 26.3853 14.8658L27.0954 17H31.3846C32.0783 17 32.7435 17.2755 33.234 17.766C33.7244 18.2565 34 18.9217 34 19.6154V31.3846C34 32.0783 33.7244 32.7435 33.234 33.234C32.7435 33.7244 32.0783 34 31.3846 34ZM10.4615 31.3846H31.3846V19.6154H25.2123L23.9046 15.6923H17.9415L16.6338 19.6154H10.4615V31.3846Z" fill="#C0C0C0"/>
<path d="M31.3846 10.4615H34V13.0769H31.3846V10.4615Z" fill="#C0C0C0"/>
<path d="M31.3846 5.23077H34V7.84615H31.3846V5.23077Z" fill="#C0C0C0"/>
<path d="M31.3846 0H34V2.61538H31.3846V0Z" fill="#C0C0C0"/>
<path d="M26.1538 0H28.7692V2.61538H26.1538V0Z" fill="#C0C0C0"/>
<path d="M20.9231 0H23.5385V2.61538H20.9231V0Z" fill="#C0C0C0"/>
<path d="M15.6923 0H18.3077V2.61538H15.6923V0Z" fill="#C0C0C0"/>
<path d="M10.4615 0H13.0769V2.61538H10.4615V0Z" fill="#C0C0C0"/>
<path d="M5.23077 0H7.84615V2.61538H5.23077V0Z" fill="#C0C0C0"/>
<path d="M0 0H2.61538V2.61538H0V0Z" fill="#C0C0C0"/>
<path d="M0 5.23077H2.61538V7.84615H0V5.23077Z" fill="#C0C0C0"/>
<path d="M0 10.4615H2.61538V13.0769H0V10.4615Z" fill="#C0C0C0"/>
<path d="M0 15.6923H2.61538V18.3077H0V15.6923Z" fill="#C0C0C0"/>
<path d="M0 20.9231H2.61538V23.5385H0V20.9231Z" fill="#C0C0C0"/>
<path d="M0 26.1538H2.61538V28.7692H0V26.1538Z" fill="#C0C0C0"/>
<path d="M0 31.3846H2.61538V34H0V31.3846Z" fill="#C0C0C0"/>
</svg>
